1 1 1 1 1 1 1 1 1 1
1 1 1 1 1 1 1 1 1 1
1 1 1 1 2 2 1 1 1 1
1 1 1 2 2 2 2 1 1 1
1 0 2 2 2 11 2 2 2 1
1 2 2 2 2 2 2 2 2 1
1 1 1 2 2 2 2 1 1 1
1 1 1 1 2 2 1 1 1 1
1 1 1 1 1 1 1 1 1 1
1 1 1 1 1 1 1 1 1 1